…
``` r
pups_data = janitor::clean_names(pups_data)
```

## Selecting\!\!\!

``` r
select(litters_data, group, litter_number)
```

    ## # A tibble: 49 x 2
    ##    group litter_number  
    ##    <chr> <chr>          
    ##  1 Con7  #85            
    ##  2 Con7  #1/2/95/2      
    ##  3 Con7  #5/5/3/83/3-3  
    ##  4 Con7  #5/4/2/95/2    
    ##  5 Con7  #4/2/95/3-3    
    ##  6 Con7  #2/2/95/3-2    
    ##  7 Con7  #1/5/3/83/3-3/2
    ##  8 Con8  #3/83/3-3      
    ##  9 Con8  #2/95/3        
    ## 10 Con8  #3/5/2/2/95    
    ## # ... with 39 more rows

``` r
select(litters_data, group, litter_number, gd0_weight)
```

    ## # A tibble: 49 x 3
    ##    group litter_number   gd0_weight
    ##    <chr> <chr>                <dbl>
    ##  1 Con7  #85                   19.7
    ##  2 Con7  #1/2/95/2             27  
    ##  3 Con7  #5/5/3/83/3-3         26  
    ##  4 Con7  #5/4/2/95/2           28.5
    ##  5 Con7  #4/2/95/3-3           NA  
    ##  6 Con7  #2/2/95/3-2           NA  
    ##  7 Con7  #1/5/3/83/3-3/2       NA  
    ##  8 Con8  #3/83/3-3             NA  
    ##  9 Con8  #2/95/3               NA  
    ## 10 Con8  #3/5/2/2/95           28.5
    ## # ... with 39 more rows

``` r
select(litters_data, litter_number, gd0_weight, starts_with("pups"))
```

    ## # A tibble: 49 x 5
    ##    litter_number   gd0_weight pups_born_alive pups_dead_birth pups_survive
    ##    <chr>                <dbl>           <dbl>           <dbl>        <dbl>
    ##  1 #85                   19.7               3               4            3
    ##  2 #1/2/95/2             27                 8               0            7
    ##  3 #5/5/3/83/3-3         26                 6               0            5
    ##  4 #5/4/2/95/2           28.5               5               1            4
    ##  5 #4/2/95/3-3           NA                 6               0            6
    ##  6 #2/2/95/3-2           NA                 6               0            4
    ##  7 #1/5/3/83/3-3/2       NA                 9               0            9
    ##  8 #3/83/3-3             NA                 9               1            8
    ##  9 #2/95/3               NA                 8               0            8
    ## 10 #3/5/2/2/95           28.5               8               0            8
    ## # ... with 39 more rows

``` r
select(litters_data, litter_number, group, gd0_weight)
```

    ## # A tibble: 49 x 3
    ##    litter_number   group gd0_weight
    ##    <chr>           <chr>      <dbl>
    ##  1 #85             Con7        19.7
    ##  2 #1/2/95/2       Con7        27  
    ##  3 #5/5/3/83/3-3   Con7        26  
    ##  4 #5/4/2/95/2     Con7        28.5
    ##  5 #4/2/95/3-3     Con7        NA  
    ##  6 #2/2/95/3-2     Con7        NA  
    ##  7 #1/5/3/83/3-3/2 Con7        NA  
    ##  8 #3/83/3-3       Con8        NA  
    ##  9 #2/95/3         Con8        NA  
    ## 10 #3/5/2/2/95     Con8        28.5
    ## # ... with 39 more rows

``` r
select(litters_data, litter_number, group, everything())
```

    ## # A tibble: 49 x 8
    ##    litter_number group gd0_weight gd18_weight gd_of_birth pups_born_alive
    ##    <chr>         <chr>      <dbl>       <dbl>       <dbl>           <dbl>
    ##  1 #85           Con7        19.7        34.7          20               3
    ##  2 #1/2/95/2     Con7        27          42            19               8
    ##  3 #5/5/3/83/3-3 Con7        26          41.4          19               6
    ##  4 #5/4/2/95/2   Con7        28.5        44.1          19               5
    ##  5 #4/2/95/3-3   Con7        NA          NA            20               6
    ##  6 #2/2/95/3-2   Con7        NA          NA            20               6
    ##  7 #1/5/3/83/3-~ Con7        NA          NA            20               9
    ##  8 #3/83/3-3     Con8        NA          NA            20               9
    ##  9 #2/95/3       Con8        NA          NA            20               8
    ## 10 #3/5/2/2/95   Con8        28.5        NA            20               8
    ## # ... with 39 more rows, and 2 more variables: pups_dead_birth <dbl>,
    ## #   pups_survive <dbl>

``` r
## Here if you had selected just the helper everything function you would still get all the same variables in the output but you woudnt have it in the order with litter number firt, group second, followed by everything else. 

select(litters_data, -group)
```

    ## # A tibble: 49 x 7
    ##    litter_number gd0_weight gd18_weight gd_of_birth pups_born_alive
    ##    <chr>              <dbl>       <dbl>       <dbl>           <dbl>
    ##  1 #85                 19.7        34.7          20               3
    ##  2 #1/2/95/2           27          42            19               8
    ##  3 #5/5/3/83/3-3       26          41.4          19               6
    ##  4 #5/4/2/95/2         28.5        44.1          19               5
    ##  5 #4/2/95/3-3         NA          NA            20               6
    ##  6 #2/2/95/3-2         NA          NA            20               6
    ##  7 #1/5/3/83/3-~       NA          NA            20               9
    ##  8 #3/83/3-3           NA          NA            20               9
    ##  9 #2/95/3             NA          NA            20               8
    ## 10 #3/5/2/2/95         28.5        NA            20               8
    ## # ... with 39 more rows, and 2 more variables: pups_dead_birth <dbl>,
    ## #   pups_survive <dbl>

``` r
select(litters_data, litter_number, gd0_weight:pups_born_alive)
```

    ## # A tibble: 49 x 5
    ##    litter_number   gd0_weight gd18_weight gd_of_birth pups_born_alive
    ##    <chr>                <dbl>       <dbl>       <dbl>           <dbl>
    ##  1 #85                   19.7        34.7          20               3
    ##  2 #1/2/95/2             27          42            19               8
    ##  3 #5/5/3/83/3-3         26          41.4          19               6
    ##  4 #5/4/2/95/2           28.5        44.1          19               5
    ##  5 #4/2/95/3-3           NA          NA            20               6
    ##  6 #2/2/95/3-2           NA          NA            20               6
    ##  7 #1/5/3/83/3-3/2       NA          NA            20               9
    ##  8 #3/83/3-3             NA          NA            20               9
    ##  9 #2/95/3               NA          NA            20               8
    ## 10 #3/5/2/2/95           28.5        NA            20               8
    ## # ... with 39 more rows

``` r
litters_selected = select(litters_data, litter_number, gd0_weight:pups_born_alive)

select(litters_data, GROUP = group, litter_number)
```

    ## # A tibble: 49 x 2
    ##    GROUP litter_number  
    ##    <chr> <chr>          
    ##  1 Con7  #85            
    ##  2 Con7  #1/2/95/2      
    ##  3 Con7  #5/5/3/83/3-3  
    ##  4 Con7  #5/4/2/95/2    
    ##  5 Con7  #4/2/95/3-3    
    ##  6 Con7  #2/2/95/3-2    
    ##  7 Con7  #1/5/3/83/3-3/2
    ##  8 Con8  #3/83/3-3      
    ##  9 Con8  #2/95/3        
    ## 10 Con8  #3/5/2/2/95    
    ## # ... with 39 more rows

``` r
rename(litters_data, GROUP = group)
```

    ## # A tibble: 49 x 8
    ##    GROUP litter_number gd0_weight gd18_weight gd_of_birth pups_born_alive
    ##    <chr> <chr>              <dbl>       <dbl>       <dbl>           <dbl>
    ##  1 Con7  #85                 19.7        34.7          20               3
    ##  2 Con7  #1/2/95/2           27          42            19               8
    ##  3 Con7  #5/5/3/83/3-3       26          41.4          19               6
    ##  4 Con7  #5/4/2/95/2         28.5        44.1          19               5
    ##  5 Con7  #4/2/95/3-3         NA          NA            20               6
    ##  6 Con7  #2/2/95/3-2         NA          NA            20               6
    ##  7 Con7  #1/5/3/83/3-~       NA          NA            20               9
    ##  8 Con8  #3/83/3-3           NA          NA            20               9
    ##  9 Con8  #2/95/3             NA          NA            20               8
    ## 10 Con8  #3/5/2/2/95         28.5        NA            20               8
    ## # ... with 39 more rows, and 2 more variables: pups_dead_birth <dbl>,
    ## #   pups_survive <dbl>
…
``` r
## one = would assign group to Con7, and two == asks is group equal to Con7

filter(litters_data,gd_of_birth == 20 )
```

    ## # A tibble: 32 x 8
    ##    group litter_number gd0_weight gd18_weight gd_of_birth pups_born_alive
    ##    <chr> <chr>              <dbl>       <dbl>       <dbl>           <dbl>
    ##  1 Con7  #85                 19.7        34.7          20               3
    ##  2 Con7  #4/2/95/3-3         NA          NA            20               6
    ##  3 Con7  #2/2/95/3-2         NA          NA            20               6
    ##  4 Con7  #1/5/3/83/3-~       NA          NA            20               9
    ##  5 Con8  #3/83/3-3           NA          NA            20               9
    ##  6 Con8  #2/95/3             NA          NA            20               8
    ##  7 Con8  #3/5/2/2/95         28.5        NA            20               8
    ##  8 Con8  #1/6/2/2/95-2       NA          NA            20               7
    ##  9 Con8  #3/5/3/83/3-~       NA          NA            20               8
    ## 10 Con8  #3/6/2/2/95-3       NA          NA            20               7
    ## # ... with 22 more rows, and 2 more variables: pups_dead_birth <dbl>,
    ## #   pups_survive <dbl>
…
``` r
filter(litters_data, gd_of_birth >= 20)
```

    ## # A tibble: 32 x 8
    ##    group litter_number gd0_weight gd18_weight gd_of_birth pups_born_alive
    ##    <chr> <chr>              <dbl>       <dbl>       <dbl>           <dbl>
    ##  1 Con7  #85                 19.7        34.7          20               3
    ##  2 Con7  #4/2/95/3-3         NA          NA            20               6
    ##  3 Con7  #2/2/95/3-2         NA          NA            20               6
    ##  4 Con7  #1/5/3/83/3-~       NA          NA            20               9
    ##  5 Con8  #3/83/3-3           NA          NA            20               9
    ##  6 Con8  #2/95/3             NA          NA            20               8
    ##  7 Con8  #3/5/2/2/95         28.5        NA            20               8
    ##  8 Con8  #1/6/2/2/95-2       NA          NA            20               7
    ##  9 Con8  #3/5/3/83/3-~       NA          NA            20               8
    ## 10 Con8  #3/6/2/2/95-3       NA          NA            20               7
    ## # ... with 22 more rows, and 2 more variables: pups_dead_birth <dbl>,
    ## #   pups_survive <dbl>
…
``` r
# R isnt good at ranges so use a less than and greater than part to get at a range

filter(litters_data, gd0_weight + gd18_weight < 70)
```

    ## # A tibble: 23 x 8
    ##    group litter_number gd0_weight gd18_weight gd_of_birth pups_born_alive
    ##    <chr> <chr>              <dbl>       <dbl>       <dbl>           <dbl>
    ##  1 Con7  #85                 19.7        34.7          20               3
    ##  2 Con7  #1/2/95/2           27          42            19               8
    ##  3 Con7  #5/5/3/83/3-3       26          41.4          19               6
    ##  4 Mod7  #59                 17          33.4          19               8
    ##  5 Mod7  #103                21.4        42.1          19               9
    ##  6 Mod7  #5/3/83/5-2         22.6        37            19               5
    ##  7 Mod7  #106                21.7        37.8          20               5
    ##  8 Mod7  #94/2               24.4        42.9          19               7
    ##  9 Mod7  #62                 19.5        35.9          19               7
    ## 10 Low7  #84/2               24.3        40.8          20               8
    ## # ... with 13 more rows, and 2 more variables: pups_dead_birth <dbl>,
    ## #   pups_survive <dbl>
…
``` r
filter(litters_data, !is.na(gd0_weight))
```

    ## # A tibble: 34 x 8
    ##    group litter_number gd0_weight gd18_weight gd_of_birth pups_born_alive
    ##    <chr> <chr>              <dbl>       <dbl>       <dbl>           <dbl>
    ##  1 Con7  #85                 19.7        34.7          20               3
    ##  2 Con7  #1/2/95/2           27          42            19               8
    ##  3 Con7  #5/5/3/83/3-3       26          41.4          19               6
    ##  4 Con7  #5/4/2/95/2         28.5        44.1          19               5
    ##  5 Con8  #3/5/2/2/95         28.5        NA            20               8
    ##  6 Con8  #5/4/3/83/3         28          NA            19               9
    ##  7 Mod7  #59                 17          33.4          19               8
    ##  8 Mod7  #103                21.4        42.1          19               9
    ##  9 Mod7  #3/82/3-2           28          45.9          20               5
    ## 10 Mod7  #4/2/95/2           23.5        NA            19               9
    ## # ... with 24 more rows, and 2 more variables: pups_dead_birth <dbl>,
    ## #   pups_survive <dbl>

``` r
# Dont do the !is.na code to get data without missing values. 

drop_na(litters_data)
```

    ## # A tibble: 31 x 8
    ##    group litter_number gd0_weight gd18_weight gd_of_birth pups_born_alive
    ##    <chr> <chr>              <dbl>       <dbl>       <dbl>           <dbl>
    ##  1 Con7  #85                 19.7        34.7          20               3
    ##  2 Con7  #1/2/95/2           27          42            19               8
    ##  3 Con7  #5/5/3/83/3-3       26          41.4          19               6
    ##  4 Con7  #5/4/2/95/2         28.5        44.1          19               5
    ##  5 Mod7  #59                 17          33.4          19               8
    ##  6 Mod7  #103                21.4        42.1          19               9
    ##  7 Mod7  #3/82/3-2           28          45.9          20               5
    ##  8 Mod7  #5/3/83/5-2         22.6        37            19               5
    ##  9 Mod7  #106                21.7        37.8          20               5
    ## 10 Mod7  #94/2               24.4        42.9          19               7
    ## # ... with 21 more rows, and 2 more variables: pups_dead_birth <dbl>,
    ## #   pups_survive <dbl>

``` r
#This will only give me complete cases

drop_na(litters_data, gd0_weight)
```

    ## # A tibble: 34 x 8
    ##    group litter_number gd0_weight gd18_weight gd_of_birth pups_born_alive
    ##    <chr> <chr>              <dbl>       <dbl>       <dbl>           <dbl>
    ##  1 Con7  #85                 19.7        34.7          20               3
    ##  2 Con7  #1/2/95/2           27          42            19               8
    ##  3 Con7  #5/5/3/83/3-3       26          41.4          19               6
    ##  4 Con7  #5/4/2/95/2         28.5        44.1          19               5
    ##  5 Con8  #3/5/2/2/95         28.5        NA            20               8
    ##  6 Con8  #5/4/3/83/3         28          NA            19               9
    ##  7 Mod7  #59                 17          33.4          19               8
    ##  8 Mod7  #103                21.4        42.1          19               9
    ##  9 Mod7  #3/82/3-2           28          45.9          20               5
    ## 10 Mod7  #4/2/95/2           23.5        NA            19               9
    ## # ... with 24 more rows, and 2 more variables: pups_dead_birth <dbl>,
    ## #   pups_survive <dbl>

``` r
#Will only drop rows where gd0_weight is NA, but not where any other variable is NA
```

## Mutate

``` r
#Mutate is to create new variables and edit variables
mutate(litters_data, wt_gain = gd18_weight - gd0_weight)
```

    ## # A tibble: 49 x 9
    ##    group litter_number gd0_weight gd18_weight gd_of_birth pups_born_alive
    ##    <chr> <chr>              <dbl>       <dbl>       <dbl>           <dbl>
    ##  1 Con7  #85                 19.7        34.7          20               3
    ##  2 Con7  #1/2/95/2           27          42            19               8
    ##  3 Con7  #5/5/3/83/3-3       26          41.4          19               6
    ##  4 Con7  #5/4/2/95/2         28.5        44.1          19               5
    ##  5 Con7  #4/2/95/3-3         NA          NA            20               6
    ##  6 Con7  #2/2/95/3-2         NA          NA            20               6
    ##  7 Con7  #1/5/3/83/3-~       NA          NA            20               9
    ##  8 Con8  #3/83/3-3           NA          NA            20               9
    ##  9 Con8  #2/95/3             NA          NA            20               8
    ## 10 Con8  #3/5/2/2/95         28.5        NA            20               8
    ## # ... with 39 more rows, and 3 more variables: pups_dead_birth <dbl>,
    ## #   pups_survive <dbl>, wt_gain <dbl>

``` r
mutate(
  litters_data, 
  wt_gain = gd18_weight - gd0_weight,
  group = str_to_lower(group))
```

    ## # A tibble: 49 x 9
    ##    group litter_number gd0_weight gd18_weight gd_of_birth pups_born_alive
    ##    <chr> <chr>              <dbl>       <dbl>       <dbl>           <dbl>
    ##  1 con7  #85                 19.7        34.7          20               3
    ##  2 con7  #1/2/95/2           27          42            19               8
    ##  3 con7  #5/5/3/83/3-3       26          41.4          19               6
    ##  4 con7  #5/4/2/95/2         28.5        44.1          19               5
    ##  5 con7  #4/2/95/3-3         NA          NA            20               6
    ##  6 con7  #2/2/95/3-2         NA          NA            20               6
    ##  7 con7  #1/5/3/83/3-~       NA          NA            20               9
    ##  8 con8  #3/83/3-3           NA          NA            20               9
    ##  9 con8  #2/95/3             NA          NA            20               8
    ## 10 con8  #3/5/2/2/95         28.5        NA            20               8
    ## # ... with 39 more rows, and 3 more variables: pups_dead_birth <dbl>,
    ## #   pups_survive <dbl>, wt_gain <dbl>

``` r
mutate(
  litters_data, 
  wt_gain = gd18_weight - gd0_weight,
  group = str_to_lower(group),
  group = str_to_upper(group))
```

    ## # A tibble: 49 x 9
    ##    group litter_number gd0_weight gd18_weight gd_of_birth pups_born_alive
    ##    <chr> <chr>              <dbl>       <dbl>       <dbl>           <dbl>
    ##  1 CON7  #85                 19.7        34.7          20               3
    ##  2 CON7  #1/2/95/2           27          42            19               8
    ##  3 CON7  #5/5/3/83/3-3       26          41.4          19               6
    ##  4 CON7  #5/4/2/95/2         28.5        44.1          19               5
    ##  5 CON7  #4/2/95/3-3         NA          NA            20               6
    ##  6 CON7  #2/2/95/3-2         NA          NA            20               6
    ##  7 CON7  #1/5/3/83/3-~       NA          NA            20               9
    ##  8 CON8  #3/83/3-3           NA          NA            20               9
    ##  9 CON8  #2/95/3             NA          NA            20               8
    ## 10 CON8  #3/5/2/2/95         28.5        NA            20               8
    ## # ... with 39 more rows, and 3 more variables: pups_dead_birth <dbl>,
    ## #   pups_survive <dbl>, wt_gain <dbl>
…
